0.004,0
0.089,0.001
0.174,0.002
0.259,0.214
0.345,0.416
0.429,0.417
0.514,0.418
0.599,0.421
0.684,0.423
0.769,0.425
0.854,0.427
0.939,0.429
1.023,0.431
1.108,0.435
1.193,0.44
1.278,0.444
1.363,0.446
1.448,0.449
1.532,0.453
1.617,0.461
1.702,0.461
1.787,0.461
1.871,0.461
1.956,0.461
2.041,0.463
2.126,0.463
2.211,0.464
2.295,0.464
2.38,0.465
2.464,0.464
2.549,0.465
2.634,0.466
2.718,0.465
2.803,0.465
2.888,0.466
2.973,0.468
3.057,0.469
3.142,0.47
3.227,0.471
3.311,0.472
3.396,0.472
3.481,0.471
3.565,0.472
3.65,0.471
3.735,0.47
3.819,0.47
3.904,0.472
3.989,0.472
4.073,0.473
4.158,0.474
4.243,0.476
4.327,0.478
4.412,0.48
4.497,0.481
4.581,0.483
4.666,0.485
4.751,0.486
4.836,0.486
4.92,0.487
5.005,0.489
5.089,0.491
5.174,0.493
5.259,0.496
5.344,0.497
5.428,0.501
5.513,0.503
5.598,0.507
5.683,0.511
5.767,0.517
5.852,0.52
5.936,0.526
6.021,0.528
6.106,0.532
6.191,0.535
6.276,0.54
6.36,0.545
6.445,0.552
6.529,0.555
6.614,0.562
6.699,0.57
6.783,0.577
6.868,0.585
6.953,0.593
7.037,0.602
7.122,0.611
7.207,0.62
7.291,0.63
7.376,0.639
7.461,0.647
7.546,0.657
7.63,0.665
7.715,0.675
7.8,0.685
7.884,0.697
7.969,0.709
8.054,0.719
8.139,0.732
8.223,0.744
8.308,0.756
8.393,0.769
8.477,0.783
8.562,0.797
8.647,0.812
8.731,0.827
8.816,0.842
8.901,0.855
8.986,0.869
9.07,0.884
9.155,0.898
9.24,0.912
9.324,0.927
9.409,0.942
9.494,0.957
9.578,0.973
9.663,0.991
9.748,1.008
9.832,1.026
9.917,1.041
10.002,1.058
10.087,1.076
10.171,1.092
10.256,1.106
10.341,1.122
10.426,1.14
10.51,1.156
10.595,1.173
10.68,1.191
10.764,1.21
10.849,1.228
10.934,1.246
11.018,1.263
11.103,1.28
11.188,1.294
11.273,1.311
11.357,1.327
11.442,1.343
11.526,1.36
11.611,1.378
11.696,1.394
11.78,1.414
11.865,1.431
11.949,1.446
12.034,1.461
12.119,1.475
12.203,1.489
12.288,1.503
12.373,1.519
12.457,1.534
12.542,1.548
12.627,1.562
12.712,1.577
12.796,1.592
12.881,1.604
12.966,1.616
13.05,1.63
13.135,1.642
13.22,1.653
13.304,1.664
13.389,1.674
13.474,1.687
13.559,1.697
13.643,1.709
13.728,1.721
13.812,1.734
13.897,1.741
13.982,1.754
14.067,1.765
14.151,1.776
14.236,1.787
14.321,1.801
14.406,1.811
14.491,1.82
14.575,1.83
14.66,1.843
14.744,1.851
14.829,1.861
14.914,1.872
14.999,1.881
15.083,1.892
15.168,1.903
15.253,1.915
15.338,1.926
15.422,1.935
15.507,1.942
15.592,1.956
15.676,1.964
15.761,1.98
15.846,1.985
15.931,1.993
16.015,2.006
16.1,2.011
16.185,2.018
16.269,2.031
16.354,2.04
16.439,2.047
16.524,2.055
16.608,2.067
16.693,2.071
16.778,2.086
16.863,2.094
16.947,2.102
17.032,2.116
17.117,2.124
17.201,2.131
17.286,2.136
17.371,2.149
17.456,2.15
17.541,2.166
17.625,2.163
17.71,2.17
17.795,2.18
17.879,2.189
17.964,2.192
18.049,2.202
18.134,2.214
18.218,2.217
18.303,2.223
18.388,2.233
18.473,2.24
18.557,2.248
18.642,2.253
18.727,2.261
18.811,2.272
18.896,2.272
18.981,2.281
19.066,2.29
19.15,2.299
19.235,2.305
19.32,2.309
19.405,2.315
19.489,2.322
19.574,2.332
19.659,2.343
19.744,2.337
19.828,2.355
19.913,2.361
19.997,2.361
20.082,2.364
20.167,2.378
20.251,2.384
20.336,2.39
20.421,2.393
20.506,2.402
20.59,2.398
20.675,2.412
20.759,2.42
20.844,2.426
20.929,2.429
21.014,2.445
21.098,2.45
21.183,2.447
21.267,2.456
21.352,2.456
21.437,2.474
21.522,2.476
21.606,2.476
21.691,2.483
21.776,2.496
21.861,2.495
21.945,2.499
22.03,2.503
22.114,2.506
22.199,2.513
22.284,2.526
22.369,2.533
22.454,2.533
22.538,2.541
22.623,2.539
22.707,2.55
22.792,2.553
22.877,2.554
22.961,2.572
23.046,2.565
23.131,2.575
23.216,2.588
23.3,2.582
23.385,2.585
23.47,2.59
23.554,2.609
23.639,2.607
23.724,2.609
23.809,2.609
23.893,2.635
23.978,2.62
24.063,2.633
24.148,2.64
24.232,2.642
24.317,2.644
24.402,2.652
24.487,2.658
24.571,2.654
24.656,2.676
24.741,2.664
24.826,2.66
24.91,2.672
24.995,2.68
25.08,2.69
25.164,2.68
25.249,2.688
25.334,2.703
25.419,2.69
25.503,2.708
25.588,2.726
25.672,2.708
25.758,2.717
25.843,2.717
25.927,2.728
26.012,2.726
26.097,2.733
26.181,2.721
26.266,2.73
26.351,2.747
26.435,2.745
26.52,2.74
26.605,2.752
26.689,2.74
26.774,2.752
26.859,2.775
26.944,2.757
27.029,2.772
27.113,2.772
27.198,2.788
27.283,2.78
27.368,2.796
27.452,2.783
27.537,2.788
27.622,2.799
27.706,2.79
27.791,2.81
27.876,2.796
27.961,2.796
28.046,2.796
28.13,2.807
28.215,2.796
28.299,2.818
28.384,2.821
28.469,2.836
28.554,2.836
28.638,2.824
28.723,2.836
28.808,2.845
28.892,2.842
28.977,2.848
29.062,2.836
29.146,2.851
29.231,2.863
29.316,2.842
29.401,2.854
29.485,2.848
29.57,2.879
29.655,2.863
29.739,2.854
29.824,2.863
29.909,2.879
29.994,2.876
30.079,2.876
30.163,2.893
30.248,2.879
30.333,2.907
30.418,2.873
30.502,2.883
30.587,2.876
30.672,2.893
30.756,2.879
30.841,2.896
30.926,2.889
31.011,2.91
31.096,2.893
31.18,2.9
31.265,2.903
31.35,2.939
31.434,2.932
31.519,2.9
31.604,2.91
31.689,2.903
31.773,2.928
31.858,2.939
31.943,2.921
32.028,2.943
32.112,2.914
32.197,2.932
32.282,2.963
32.367,2.963
32.451,2.943
32.536,2.967
32.621,2.951
32.706,2.955
32.79,2.967
32.875,2.951
32.959,2.951
33.044,2.971
33.129,2.979
33.214,2.939
33.299,2.967
33.383,2.987
33.468,2.975
33.553,2.971
33.638,2.963
33.722,2.987
33.807,2.987
33.892,2.971
33.976,2.975
34.061,3
34.146,2.983
34.231,3.004
34.316,2.996
34.4,2.979
34.485,2.991
34.57,2.983
34.654,3.009
34.739,2.996
34.824,3.013
34.909,2.983
34.993,2.979
35.078,3.004
35.163,3
35.248,2.975
35.332,2.983
35.417,3.032
35.502,2.987
35.586,3.009
35.671,2.991
35.756,3.022
35.84,3.027
35.925,3.004
36.01,3.046
36.095,3.046
36.18,3.018
36.264,3.018
36.349,3.022
36.434,3.018
36.518,3.018
36.603,3.066
36.688,3.066
36.773,3.036
36.858,3.056
36.942,3.056
37.027,3.022
37.112,3.018
37.196,3.046
37.281,3.046
37.366,3.081
37.451,3.027
37.535,3.041
37.62,3.013
37.705,3.06
37.789,3.06
37.874,3.009
37.959,3.071
38.044,3.071
38.129,3.046
38.213,3.027
38.298,3.056
38.383,3.076
38.468,3.076
38.552,3.071
38.637,3.071
38.722,3.076
38.806,3.086
38.891,3.125
38.976,3.086
39.061,3.131
39.146,3.076
39.23,3.114
39.315,3.071
39.399,3.071
39.484,3.092
39.569,3.051
39.654,3.076
39.738,3.086
39.823,3.092
39.907,3.125
39.992,3.081
40.077,3.114
40.162,3.086
40.247,3.086
40.331,3.102
40.416,3.102
40.501,3.071
40.586,3.108
40.67,3.119
40.755,3.102
40.84,3.092
40.924,3.155
41.009,3.143
41.094,3.143
41.179,3.137
41.264,3.137
41.348,3.119
41.433,3.155
41.518,3.18
41.602,3.125
41.687,3.125
41.772,3.092
41.857,3.137
41.941,3.102
42.026,3.131
42.111,3.125
42.196,3.131
42.281,3.137
42.365,3.125
42.45,3.161
42.535,3.102
42.619,3.155
42.704,3.114
42.789,3.149
42.873,3.143
42.958,3.155
43.043,3.155
43.128,3.119
43.213,3.149
43.297,3.149
43.382,3.143
43.467,3.131
43.551,3.137
43.636,3.187
43.721,3.149
43.806,3.131
43.89,3.194
43.975,3.174
44.06,3.149
44.145,3.208
44.229,3.167
44.314,3.174
44.399,3.18
44.484,3.155
44.568,3.131
44.653,3.194
44.738,3.174
44.822,3.194
44.907,3.174
44.992,3.149
45.077,3.161
45.162,3.161
45.246,3.215
45.331,3.143
45.416,3.187
45.501,3.194
45.585,3.194
45.67,3.237
45.754,3.208
45.839,3.201
45.924,3.208
46.009,3.222
46.093,3.187
46.178,3.215
46.263,3.161
46.348,3.222
46.432,3.194
46.517,3.208
46.602,3.167
46.687,3.167
46.771,3.174
46.856,3.252
46.941,3.215
47.025,3.222
47.11,3.229
47.195,3.187
47.28,3.208
47.365,3.252
47.449,3.244
47.534,3.237
47.619,3.167
47.703,3.252
47.788,3.237
47.873,3.18
47.957,3.215
48.042,3.215
48.127,3.215
48.212,3.244
48.296,3.237
48.381,3.208
48.466,3.229
48.55,3.26
48.635,3.229
48.72,3.237
48.804,3.237
48.889,3.222
48.974,3.194
49.058,3.244
49.143,3.229
49.228,3.252
49.312,3.222
49.397,3.237
49.482,3.222
49.567,3.215
49.651,3.276
49.736,3.337
49.821,3.301
49.905,3.268
49.99,3.208
50.075,3.26
50.159,3.229
50.244,3.268
50.329,3.26
50.413,3.252
50.498,3.229
50.583,3.319
50.667,3.319
50.752,3.252
50.837,3.276
50.922,3.244
51.006,3.301
51.091,3.284
51.175,3.252
51.26,3.222
51.345,3.252
51.43,3.252
51.514,3.292
51.599,3.222
51.684,3.237
51.768,3.252
51.853,3.276
51.938,3.284
52.023,3.268
52.107,3.252
52.192,3.284
52.276,3.284
52.361,3.284
52.446,3.252
52.531,3.292
52.615,3.301
52.7,3.31
52.785,3.26
52.869,3.276
52.954,3.31
53.039,3.284
53.123,3.301
53.208,3.276
53.292,3.347
53.377,3.268
53.462,3.276
53.547,3.301
53.632,3.301
53.716,3.301
53.801,3.26
53.886,3.319
53.97,3.284
54.055,3.292
54.14,3.328
54.224,3.284
54.309,3.347
54.394,3.268
54.479,3.347
54.563,3.284
54.648,3.31
54.733,3.301
54.817,3.284
54.902,3.292
54.987,3.328
55.071,3.301
55.156,3.398
55.241,3.284
55.326,3.328
55.411,3.292
55.495,3.337
55.58,3.347
55.665,3.319
55.75,3.276
55.834,3.301
55.919,3.301
56.004,3.337
56.088,3.347
56.173,3.319
56.258,3.367
56.343,3.387
56.428,3.26
56.512,3.301
56.597,3.337
56.682,3.328
56.766,3.292
56.851,3.347
56.936,3.328
57.021,3.31
57.105,3.357
57.19,3.377
57.274,3.347
57.359,3.337
57.444,3.357
57.529,3.469
57.614,3.347
57.699,3.357
57.783,3.328
57.868,3.347
57.953,3.337
58.037,3.347
58.122,3.292
58.207,3.347
58.292,3.328
58.376,3.337
58.461,3.284
58.546,3.328
58.631,3.387
58.715,3.347
58.8,3.319
58.885,3.337
58.969,3.367
59.054,3.347
59.139,3.444
59.224,3.367
59.308,3.409
59.393,3.357
59.478,3.377
59.563,3.409
59.648,3.347
59.732,3.357
59.817,3.357
59.902,3.398
59.986,3.328
60.071,3.377
60.156,3.398
60.24,3.357
60.325,3.319
60.41,3.387
60.495,3.328
60.579,3.292
60.664,3.398
60.749,3.337
60.834,3.444
60.918,3.337
61.003,3.319
61.088,3.328
61.172,3.367
61.257,3.387
61.342,3.357
61.427,3.328
61.511,3.387
61.596,3.367
61.681,3.328
61.766,3.328
61.851,3.377
61.935,3.398
62.02,3.42
62.104,3.357
62.189,3.432
62.274,3.347
62.359,3.357
62.444,3.337
62.529,3.444
62.613,3.367
62.698,3.377
62.782,3.387
62.867,3.387
62.952,3.432
63.037,3.432
63.122,3.377
63.206,3.387
63.291,3.377
63.376,3.42
63.461,3.432
63.546,3.42
63.63,3.456
63.715,3.367
63.8,3.387
63.884,3.409
63.969,3.432
64.054,3.409
64.139,3.444
64.223,3.42
64.308,3.42
64.393,3.409
64.478,3.319
64.562,3.328
64.647,3.432
64.732,3.387
64.817,3.432
64.901,3.409
64.986,3.456
65.071,3.409
65.156,3.42
65.241,3.444
65.325,3.42
65.41,3.409
65.495,3.347
65.58,3.432
65.664,3.367
65.749,3.409
65.834,3.377
65.919,3.456
66.003,3.398
66.088,3.398
66.173,3.495
66.257,3.409
66.342,3.42
66.427,3.432
66.512,3.469
66.597,3.42
66.681,3.481
66.766,3.469
66.851,3.444
66.935,3.377
67.02,3.387
67.105,3.398
67.189,3.444
67.274,3.432
67.359,3.456
67.444,3.347
67.529,3.409
67.613,3.398
67.698,3.387
67.782,3.432
67.867,3.357
67.952,3.347
68.037,3.409
68.122,3.432
68.206,3.481
68.291,3.495
68.376,3.456
68.46,3.367
68.545,3.432
68.63,3.456
68.715,3.42
68.799,3.42
68.884,3.387
68.969,3.409
69.054,3.444
69.138,3.357
69.223,3.409
69.308,3.456
69.392,3.509
69.477,3.377
69.562,3.357
69.647,3.444
69.731,3.538
69.816,3.509
69.901,3.432
69.985,3.495
70.07,3.509
70.155,3.367
70.239,3.444
70.324,3.481
70.409,3.377
70.494,3.42
70.578,3.387
70.663,3.456
70.748,3.357
70.832,3.432
70.917,3.444
71.002,3.444
71.087,3.409
71.171,3.509
71.256,3.456
71.341,3.42
71.425,3.495
71.51,3.585
71.595,3.469
71.68,3.481
71.764,3.387
71.849,3.469
71.934,3.481
72.018,3.509
72.103,3.444
72.188,3.481
72.273,3.481
72.358,3.432
72.442,3.495
72.527,3.469
72.611,3.444
72.696,3.585
72.781,3.398
72.866,3.42
72.951,3.432
73.035,3.409
73.12,3.469
73.205,3.481
73.289,3.469
73.374,3.509
73.459,3.456
73.543,3.523
73.628,3.398
73.713,3.553
73.798,3.585
73.882,3.456
73.967,3.538
74.052,3.42
74.136,3.469
74.221,3.523
74.306,3.469
74.391,3.456
74.475,3.42
74.56,3.387
74.645,3.553
74.729,3.523
74.814,3.469
74.899,3.538
74.984,3.495
75.069,3.444
75.153,3.432
75.238,3.553
75.323,3.432
75.407,3.481
75.492,3.481
75.577,3.495
75.661,3.444
75.746,3.495
75.831,3.523
75.916,3.509
76.001,3.509
76.085,3.509
76.17,3.469
76.254,3.523
76.339,3.398
76.424,3.495
76.509,3.481
76.594,3.509
76.678,3.432
76.763,3.444
76.848,3.569
76.933,3.469
77.017,3.509
77.102,3.398
77.187,3.553
77.271,3.481
77.356,3.538
77.441,3.456
77.525,3.538
77.61,3.585
77.695,3.538
77.779,3.481
77.864,3.456
77.949,3.444
78.034,3.481
78.119,3.481
78.203,3.538
78.288,3.432
78.373,3.585
78.457,3.523
78.542,3.553
78.627,3.523
78.711,3.62
78.796,3.569
78.881,3.469
78.966,3.481
79.051,3.538
79.135,3.432
79.22,3.456
79.305,3.509
79.389,3.481
79.474,3.495
79.559,3.538
79.643,3.444
79.728,3.553
79.813,3.456
79.897,3.481
79.983,3.509
80.067,3.432
80.152,3.495
80.237,3.509
80.321,3.481
80.406,3.444
80.491,3.495
80.575,3.569
80.66,3.456
80.745,3.553
80.83,3.553
80.914,3.456
80.999,3.569
81.084,3.538
81.169,3.585
81.253,3.509
81.338,3.469
81.423,3.585
81.507,3.481
81.592,3.523
81.677,3.585
81.761,3.553
81.846,3.553
81.931,3.678
82.016,3.495
82.101,3.553
82.185,3.538
82.27,3.602
82.355,3.585
82.439,3.469
82.524,3.638
82.609,3.62
82.694,3.523
82.778,3.538
82.863,3.523
82.948,3.569
83.033,3.523
83.117,3.481
83.202,3.585
83.287,3.495
83.371,3.602
83.456,3.538
83.541,3.62
83.626,3.523
83.71,3.585
83.795,3.585
83.879,3.569
83.964,3.538
84.049,3.602
84.134,3.602
84.219,3.585
84.303,3.538
84.388,3.569
84.473,3.456
84.558,3.585
84.642,3.602
84.727,3.509
84.811,3.62
84.896,3.569
84.981,3.553
85.066,3.658
85.151,3.585
85.235,3.638
85.32,3.538
85.405,3.553
85.489,3.538
85.574,3.745
85.659,3.569
85.744,3.602
85.828,3.495
85.913,3.638
85.998,3.569
86.082,3.585
86.167,3.699
86.252,3.602
86.337,3.699
86.421,3.569
86.506,3.638
86.591,3.538
86.676,3.678
86.76,3.678
86.845,3.602
86.93,3.553
87.014,3.658
87.099,3.585
87.184,3.553
87.269,3.569
87.353,3.638
87.438,3.699
87.523,3.62
87.608,3.638
87.692,3.585
87.777,3.538
87.862,3.658
87.946,3.585
88.031,3.602
88.116,3.638
88.201,3.658
88.285,3.523
88.37,3.585
88.455,3.658
88.539,3.62
88.624,3.569
88.709,3.569
88.793,3.538
88.878,3.638
88.963,3.745
89.047,3.509
89.132,3.569
89.217,3.602
89.302,3.745
89.387,3.638
89.471,3.585
89.556,3.585
89.641,3.585
89.726,3.678
89.81,3.638
89.895,3.62
89.98,3.62
90.064,3.602
90.149,3.602
90.234,3.509
90.319,3.553
90.403,3.62
90.488,3.523
90.573,3.658
90.657,3.509
90.742,3.538
90.827,3.553
90.911,3.538
90.996,3.721
91.081,3.62
91.166,3.585
91.251,3.699
91.335,3.585
91.42,3.553
91.505,3.602
