0,1.962962963
0.25,1.962962963
0.5,1.937037037
0.75,1.8592592593
1,1.9148148148
1.25,2.1814814815
1.25,1.8777777778
1.25,1.7777777778
1.25,1.8259259259
1.25,1.7777777778
1.25,1.8851851852
2.33,1.7777777778
4.25,1.8111111111
4.25,1.7037037037
17.25,1.5037037037
18.75,1.7222222222
19.25,1.5407407407
20.25,1.537037037
42.75,1.1555555556
43.25,1.2
65.75,0.9666666667
67.75,0.9666666667
